<?xml version="1.0" encoding="UTF-8"?>
<!DOCTYPE svg PUBLIC "-//W3C//DTD SVG 1.1//EN" "http://www.w3.org/Graphics/SVG/1.1/DTD/svg11.dtd">
<!-- Creator: CorelDRAW 2018 (64-Bit) -->
<svg xmlns="http://www.w3.org/2000/svg" xml:space="preserve" width="19.1677mm" height="19.1677mm" version="1.1" style="shape-rendering:geometricPrecision; text-rendering:geometricPrecision; image-rendering:optimizeQuality; fill-rule:evenodd; clip-rule:evenodd"
viewBox="0 0 739.67 739.67"
 xmlns:xlink="http://www.w3.org/1999/xlink">
 <defs>
  <style type="text/css">
   <![CDATA[
    .fil1 {fill:none}
    .fil0 {fill:#9E9E9E}
   ]]>
  </style>
 </defs>
 <g id="Слой_x0020_1">
  <metadata id="CorelCorpID_0Corel-Layer"/>
  <g id="_2607332799056">
   <path class="fil0" d="M647.21 184.92l-123.28 0c0,-85.06 -69.04,-154.1 -154.1,-154.1 -85.06,0 -154.1,69.04 -154.1,154.1l-123.27 0 0 493.11 554.75 0 0 -493.11zm-277.37 -92.46c51.16,0 92.46,41.29 92.46,92.47l-184.93 -0.01c0,-51.16 41.29,-92.46 92.46,-92.46zm0 308.2c-85.06,0 -154.1,-69.04 -154.1,-154.1l61.63 0c0,51.16 41.29,92.46 92.46,92.46 51.17,0 92.46,-41.29 92.46,-92.45l61.63 -0.01c0,85.06 -69.04,154.1 -154.1,154.1z"/>
   <polygon class="fil1" points="-0,0 739.67,0 739.67,739.67 -0,739.67 "/>
  </g>
 </g>
</svg>
